files/rf_bridge_sim.vcd
$timescale 1ns $end
$scope module logic $end
$var wire 8 ! IRQ $end
$var wire 1 " USART0_RX $end
$var wire 1 # USART0_UDRE $end
$var wire 1 $ TIMER0_COMPA $end
$var wire 1 % E5 $end
$var wire 1 & E4 $end
$var wire 1 ' TX $end
$upscope $end
$enddefinitions $end
$dumpvars
bxxxxxxxx !
x"
x#
x$
x%
x&
x'
$end
#583312
0'
#583937
1#
b00011010 !
#587187
0#
b00000000 !
#596937
1$
b00010101 !
#605937
0$
b00000000 !
#609187
1#
b00011010 !
#613375
0#
b00000000 !
#613812
1$
b00010101 !
#622812
0$
b00000000 !
#627875
1$
b00010101 !
#636875
0$
b00000000 !
#643375
1$
b00010101 !
#652375
0$
b00000000 !
#658937
1$
b00010101 !
#667937
0$
b00000000 !
#674375
1$
b00010101 !
#683375
0$
b00000000 !
#689937
1$
b00010101 !
#698937
0$
b00000000 !
#705375
1$
b00010101 !
#712750
1#
b00011010 !
#716937
0#
b00010101 !
#718875
0$
b00000000 !
#720875
1$
b00010101 !
#729875
0$
b00000000 !
#736437
1$
b00010101 !
#745437
0$
b00000000 !
#751875
1$
b00010101 !
#760875
0$
b00000000 !
#767375
1$
b00010101 !
#776375
0$
b00000000 !
#782937
1$
b00010101 !
#791937
0$
b00000000 !
#798437
1$
b00010101 !
#805812
1#
b00011010 !
#810000
0#
b00010101 !
#811937
0$
b00000000 !
#813875
1$
b00010101 !
#822875
0$
b00000000 !
#829375
1$
b00010101 !
#838375
0$
b00000000 !
#844875
1$
b00010101 !
#853875
0$
b00000000 !
#860500
1$
b00010101 !
#869500
0$
b00000000 !
#875937
1$
b00010101 !
#884937
0$
b00000000 !
#891437
1$
b00010101 !
#898812
1#
b00011010 !
#903000
0#
b00010101 !
#904937
0$
b00000000 !
#906875
1$
b00010101 !
#915875
0$
b00000000 !
#922375
1$
b00010101 !
#931375
0$
b00000000 !
#937875
1$
b00010101 !
#946875
0$
b00000000 !
#953437
1$
b00010101 !
#962437
0$
b00000000 !
#968937
1$
b00010101 !
#977937
0$
b00000000 !
#984437
1$
b00010101 !
#991812
1#
b00011010 !
#996000
0#
b00010101 !
#997937
0$
b00000000 !
#999875
1$
b00010101 !
#1008875
0$
b00000000 !
#1015375
1$
b00010101 !
#1024375
0$
b00000000 !
#1030875
1$
b00010101 !
#1039875
0$
b00000000 !
#1046500
1$
b00010101 !
#1055500
0$
b00000000 !
#1061937
1$
b00010101 !
#1070937
0$
b00000000 !
#1077375
1$
b00010101 !
#1084750
1#
b00011010 !
#1088937
0#
b00010101 !
#1090875
0$
b00000000 !
#1092875
1$
b00010101 !
#1101875
0$
b00000000 !
#1108375
1$
b00010101 !
#1117375
0$
b00000000 !
#1123937
1$
b00010101 !
#1132937
0$
b00000000 !
#1139437
1$
b00010101 !
#1148437
0$
b00000000 !
#1154875
1$
b00010101 !
#1163875
0$
b00000000 !
#1170437
1$
b00010101 !
#1177812
1#
b00011010 !
#1182000
0#
b00010101 !
#1183937
0$
b00000000 !
#1185875
1$
b00010101 !
#1194875
0$
b00000000 !
#1201437
1$
b00010101 !
#1210437
0$
b00000000 !
#1216875
1$
b00010101 !
#1225875
0$
b00000000 !
#1232437
1$
b00010101 !
#1241437
0$
b00000000 !
#1247937
1$
b00010101 !
#1256937
0$
b00000000 !
#1263375
1$
b00010101 !
#1270750
1#
b00011010 !
#1274937
0#
b00010101 !
#1276875
0$
b00000000 !
#1278937
1$
b00010101 !
#1287937
0$
b00000000 !
#1294375
1$
b00010101 !
#1303375
0$
b00000000 !
#1309937
1$
b00010101 !
#1318937
0$
b00000000 !
#1325375
1$
b00010101 !
#1334375
0$
b00000000 !
#1340937
1$
b00010101 !
#1349937
0$
b00000000 !
#1356437
1$
b00010101 !
#1363812
1#
b00011010 !
#1368000
0#
b00010101 !
#1369937
0$
b00000000 !
#1371875
1$
b00010101 !
#1380875
0$
b00000000 !
#1387437
1$
b00010101 !
#1396437
0$
b00000000 !
#1402875
1$
b00010101 !
#1411875
0$
b00000000 !
#1418437
1$
b00010101 !
#1427437
0$
b00000000 !
#1433875
1$
b00010101 !
#1442875
0$
b00000000 !
#1449437
1$
b00010101 !
#1456812
1#
b00011010 !
#1461000
0#
b00010101 !
#1462937
0$
b00000000 !
#1464875
1$
b00010101 !
#1473875
0$
b00000000 !
#1480375
1$
b00010101 !
#1489375
0$
b00000000 !
#1495937
1$
b00010101 !
#1504937
0$
b00000000 !
#1511375
1$
b00010101 !
#1520375
0$
b00000000 !
#1526937
1$
b00010101 !
#1535937
0$
b00000000 !
#1542375
1$
b00010101 !
#1549750
1#
b00011010 !
#1553937
0#
b00010101 !
#1555875
0$
b00000000 !
#1557937
1$
b00010101 !
#1566937
0$
b00000000 !
#1573375
1$
b00010101 !
#1582375
0$
b00000000 !
#1588875
1$
b00010101 !
#1597875
0$
b00000000 !
#1604437
1$
b00010101 !
#1613437
0$
b00000000 !
#1619875
1$
b00010101 !
#1628875
0$
b00000000 !
#1635437
1$
b00010101 !
#1642812
1#
b00011010 !
#1647000
0#
b00010101 !
#1648937
0$
b00000000 !
#1650875
1$
b00010101 !
#1659875
0$
b00000000 !
#1666437
1$
b00010101 !
#1675437
0$
b00000000 !
#1681875
1$
b00010101 !
#1690875
0$
b00000000 !
#1697437
1$
b00010101 !
#1706437
0$
b00000000 !
#1712875
1$
b00010101 !
#1721875
0$
b00000000 !
#1728437
1$
b00010101 !
#1735812
1#
b00011010 !
#1740000
0#
b00010101 !
#1741937
0$
b00000000 !
#1743875
1$
b00010101 !
#1752875
0$
b00000000 !
#1759437
1$
b00010101 !
#1768437
0$
b00000000 !
#1774875
1$
b00010101 !
#1783875
0$
b00000000 !
#1790375
1$
b00010101 !
#1799375
0$
b00000000 !
#1805937
1$
b00010101 !
#1814937
0$
b00000000 !
#1821437
1$
b00010101 !
#1828812
1#
b00011010 !
#1833000
0#
b00010101 !
#1834937
0$
b00000000 !
#1836875
1$
b00010101 !
#1845875
0$
b00000000 !
#1852437
1$
b00010101 !
#1861437
0$
b00000000 !
#1867937
1$
b00010101 !
#1876937
0$
b00000000 !
#1883437
1$
b00010101 !
#1892437
0$
b00000000 !
#1898875
1$
b00010101 !
#1907875
0$
b00000000 !
#1914375
1$
b00010101 !
#1921750
1#
b00011010 !
#1925937
0#
b00010101 !
#1927875
0$
b00000000 !
#1929875
1$
b00010101 !
#1938875
0$
b00000000 !
#1945375
1$
b00010101 !
#1954375
0$
b00000000 !
#1960937
1$
b00010101 !
#1969937
0$
b00000000 !
#1976375
1$
b00010101 !
#1985375
0$
b00000000 !
#1992125
1$
b00010101 !
#2001125
0$
b00000000 !
#2007437
1$
b00010101 !
#2014812
1#
b00011010 !
#2019000
0#
b00010101 !
#2020937
0$
b00000000 !
#2022875
1$
b00010101 !
#2031875
0$
b00000000 !
#2038375
1$
b00010101 !
#2047375
0$
b00000000 !
#2053875
1$
b00010101 !
#2062875
0$
b00000000 !
#2069437
1$
b00010101 !
#2078437
0$
b00000000 !
#2084875
1$
b00010101 !
#2093875
0$
b00000000 !
#2100437
1$
b00010101 !
#2108187
1#
b00011010 !
#2112375
0#
b00010101 !
#2113937
0$
b00000000 !
#2115875
1$
b00010101 !
#2124875
0$
b00000000 !
#2131437
1$
b00010101 !
#2140437
0$
b00000000 !
#2146875
1$
b00010101 !
#2155875
0$
b00000000 !
#2162437
1$
b00010101 !
#2171437
0$
b00000000 !
#2177875
1$
b00010101 !
#2186875
0$
b00000000 !
#2193437
1$
b00010101 !
#2201687
1#
b00011010 !
#2205875
0#
b00010101 !
#2206937
0$
b00000000 !
#2208937
1$
b00010101 !
#2217937
0$
b00000000 !
#2224375
1$
b00010101 !
#2233375
0$
b00000000 !
#2239875
1$
b00010101 !
#2248875
0$
b00000000 !
#2255375
1$
b00010101 !
#2264375
0$
b00000000 !
#2270875
1$
b00010101 !
#2279875
0$
b00000000 !
#2286375
1$
b00010101 !
#2295375
0$
b00000000 !
#2295875
1#
b00011010 !
#2300062
0#
b00000000 !
#2301875
1$
b00010101 !
#2310875
0$
b00000000 !
#2317437
1$
b00010101 !
#2326437
0$
b00000000 !
#2333125
1$
b00010101 !
#2342125
0$
b00000000 !
#2348625
1$
b00010101 !
#2357625
0$
b00000000 !
#2363875
1$
b00010101 !
#2372875
0$
b00000000 !
#2379375
1$
b00010101 !
#2388375
0$
b00000000 !
#2389062
1#
b00011010 !
#2393250
0#
b00000000 !
#2394875
1$
b00010101 !
#2403875
0$
b00000000 !
#2410375
1$
b00010101 !
#2419375
0$
b00000000 !
#2425875
1$
b00010101 !
#2434875
0$
b00000000 !
#2441375
1$
b00010101 !
#2450375
0$
b00000000 !
#2456937
1$
b00010101 !
#2465937
0$
b00000000 !
#2472437
1$
b00010101 !
#2481437
0$
b00000000 !
#2482125
1#
b00011010 !
#2486312
0#
b00000000 !
#2487875
1$
b00010101 !
#2496875
0$
b00000000 !
#2503437
1$
b00010101 !
#2512437
0$
b00000000 !
#2518937
1$
b00010101 !
#2527937
0$
b00000000 !
#2534437
1$
b00010101 !
#2543437
0$
b00000000 !
#2549875
1$
b00010101 !
#2554937
0$
b00000000 !
#2565375
1$
b00010101 !
#2570437
0$
b00000000 !
#2575625
1#
b00011010 !
#2579812
0#
b00000000 !
#2581125
1$
b00010101 !
#2586187
0$
b00000000 !
#2596375
1$
b00010101 !
#2601437
0$
b00000000 !
#2611875
1$
b00010101 !
#2616937
0$
b00000000 !
#2627375
1$
b00010101 !
#2632437
0$
b00000000 !
#2642937
1$
b00010101 !
#2648000
0$
b00000000 !
#2658375
1$
b00010101 !
#2663437
0$
b00000000 !
#2669125
1#
b00011010 !
#2673312
0#
b00000000 !
#2673875
1$
b00010101 !
#2678937
0$
b00000000 !
#2689437
1$
b00010101 !
#2694500
0$
b00000000 !
#2704937
1$
b00010101 !
#2710000
0$
b00000000 !
#2720375
1$
b00010101 !
#2725437
0$
b00000000 !
#2735875
1$
b00010101 !
#2740937
0$
b00000000 !
#2751375
1$
b00010101 !
#2756437
0$
b00000000 !
#2762625
1#
b00011010 !
#2766812
0#
b00000000 !
#2767250
1$
b00010101 !
#2772312
0$
b00000000 !
#2782375
1$
b00010101 !
#2787437
0$
b00000000 !
#2797875
1$
b00010101 !
#2802937
0$
b00000000 !
#2813437
1$
b00010101 !
#2818500
0$
b00000000 !
#2828937
1$
b00010101 !
#2834000
0$
b00000000 !
#2844375
1$
b00010101 !
#2849437
0$
b00000000 !
#2856125
1#
b00011010 !
#2860312
0#
b00000000 !
#2860875
1$
b00010101 !
#2865937
0$
b00000000 !
#2875375
1$
b00010101 !
#2880437
0$
b00000000 !
#2890937
1$
b00010101 !
#2896000
0$
b00000000 !
#2906687
1$
b00010101 !
#2911312
1'
#2913687
0$
b00000000 !
#2921875
1$
b00010101 !
#2927875
0$
b00000000 !
#2937437
1$
b00010101 !
#2943437
0$
b00000000 !
#2949625
1#
b00011010 !
#2953812
0#
b00000000 !
#2954250
1$
b00010101 !
#2960250
0$
b00000000 !
#2968375
1$
b00010101 !
#2974375
0$
b00000000 !
#2983937
1$
b00010101 !
#2989937
0$
b00000000 !
#2999437
1$
b00010101 !
#3005437
0$
b00000000 !
#3014875
1$
b00010101 !
#3020875
0$
b00000000 !
#3030375
1$
b00010101 !
#3036375
0$
b00000000 !
#3043250
1#
b00011010 !
#3047437
0#
b00000000 !
#3047937
1$
b00010101 !
#3053937
0$
b00000000 !
#3061437
1$
b00010101 !
#3067437
0$
b00000000 !
#3076875
1$
b00010101 !
#3082875
0$
b00000000 !
#3092375
1$
b00010101 !
#3098750
0'
#3101125
0$
b00000000 !
#3108000
1$
b00010101 !
#3114000
0$
b00000000 !
#3123437
1$
b00010101 !
#3129437
0$
b00000000 !
#3136625
1#
b00011010 !
#3140812
0#
b00000000 !
#3141250
1$
b00010101 !
#3147250
0$
b00000000 !
#3154375
1$
b00010101 !
#3160375
0$
b00000000 !
#3169937
1$
b00010101 !
#3175937
0$
b00000000 !
#3185437
1$
b00010101 !
#3191437
0$
b00000000 !
#3200875
1$
b00010101 !
#3206875
0$
b00000000 !
#3216375
1$
b00010101 !
#3222375
0$
b00000000 !
#3230187
1#
b00011010 !
#3234375
0#
b00000000 !
#3234875
1$
b00010101 !
#3240875
0$
b00000000 !
#3247375
1$
b00010101 !
#3253375
0$
b00000000 !
#3262937
1$
b00010101 !
#3268937
0$
b00000000 !
#3278500
1$
b00010101 !
#3284500
0$
b00000000 !
#3293937
1$
b00010101 !
#3299937
0$
b00000000 !
#3309375
1$
b00010101 !
#3315375
0$
b00000000 !
#3323687
1#
b00011010 !
#3327875
0#
b00000000 !
#3328437
1$
b00010101 !
#3334437
0$
b00000000 !
#3340437
1$
b00010101 !
#3346437
0$
b00000000 !
#3355937
1$
b00010101 !
#3361937
0$
b00000000 !
#3371375
1$
b00010101 !
#3377375
0$
b00000000 !
#3386875
1$
b00010101 !
#3392875
0$
b00000000 !
#3402437
1$
b00010101 !
#3408437
0$
b00000000 !
#3417125
1#
b00011010 !
#3421312
0#
b00000000 !
#3421875
1$
b00010101 !
#3427875
0$
b00000000 !
#3433375
1$
b00010101 !
#3439375
0$
b00000000 !
#3448937
1$
b00010101 !
#3454937
0$
b00000000 !
#3464437
1$
b00010101 !
#3470437
0$
b00000000 !
#3479875
1$
b00010101 !
#3485875
0$
b00000000 !
#3495375
1$
b00010101 !
#3501375
0$
b00000000 !
#3510687
1#
b00011010 !
#3514875
0#
b00000000 !
#3515375
1$
b00010101 !
#3521375
0$
b00000000 !
#3526375
1$
b00010101 !
#3532375
0$
b00000000 !
#3542125
1$
b00010101 !
#3548125
0$
b00000000 !
#3557437
1$
b00010101 !
#3563437
0$
b00000000 !
#3572937
1$
b00010101 !
#3578937
0$
b00000000 !
#3588375
1$
b00010101 !
#3594375
0$
b00000000 !
#3603875
1$
b00010101 !
#3608250
1#
b00011010 !
#3612437
0#
b00010101 !
#3614375
0$
b00000000 !
#3619437
1$
b00010101 !
#3625437
0$
b00000000 !
#3634937
1$
b00010101 !
#3640937
0$
b00000000 !
#3650375
1$
b00010101 !
#3659125
1'
#3661500
0$
b00000000 !
#3665875
1$
b00010101 !
#3671875
0$
b00000000 !
#3681437
1$
b00010101 !
#3687437
0$
b00000000 !
#3696937
1$
b00010101 !
#3701312
1#
b00011010 !
#3705500
0#
b00010101 !
#3707437
0$
b00000000 !
#3712375
1$
b00010101 !
#3718375
0$
b00000000 !
#3727875
1$
b00010101 !
#3733875
0$
b00000000 !
#3743437
1$
b00010101 !
#3749437
0$
b00000000 !
#3758937
1$
b00010101 !
#3764937
0$
b00000000 !
#3774375
1$
b00010101 !
#3780375
0$
b00000000 !
#3789875
1$
b00010101 !
#3794250
1#
b00011010 !
#3798437
0#
b00010101 !
#3800375
0$
b00000000 !
#3805437
1$
b00010101 !
#3811437
0$
b00000000 !
#3820937
1$
b00010101 !
#3826937
0$
b00000000 !
#3836375
1$
b00010101 !
#3842375
0$
b00000000 !
#3851875
1$
b00010101 !
#3857875
0$
b00000000 !
#3867437
1$
b00010101 !
#3873437
0$
b00000000 !
#3882875
1$
b00010101 !
#3887250
1#
b00011010 !
#3891437
0#
b00010101 !
#3893375
0$
b00000000 !
#3898375
1$
b00010101 !
#3904375
0$
b00000000 !
#3913937
1$
b00010101 !
#3919937
0$
b00000000 !
#3929437
1$
b00010101 !
#3935437
0$
b00000000 !
#3944875
1$
b00010101 !
#3950875
0$
b00000000 !
#3960375
1$
b00010101 !
#3966375
0$
b00000000 !
#3975937
1$
b00010101 !
#3980312
1#
b00011010 !
#3984500
0#
b00010101 !
#3986437
0$
b00000000 !
#3991375
1$
b00010101 !
#3997375
0$
b00000000 !
#4006875
1$
b00010101 !
#4012875
0$
b00000000 !
#4022437
1$
b00010101 !
#4028437
0$
b00000000 !
#4037937
1$
b00010101 !
#4043937
0$
b00000000 !
#4053375
1$
b00010101 !
#4059375
0$
b00000000 !
#4068875
1$
b00010101 !
#4073250
1#
b00011010 !
#4077437
0#
b00010101 !
#4079375
0$
b00000000 !
#4084437
1$
b00010101 !
#4090437
0$
b00000000 !
#4099937
1$
b00010101 !
#4105937
0$
b00000000 !
#4115375
1$
b00010101 !
#4121375
0$
b00000000 !
#4130875
1$
b00010101 !
#4136875
0$
b00000000 !
#4146437
1$
b00010101 !
#4152437
0$
b00000000 !
#4161875
1$
b00010101 !
#4166250
1#
b00011010 !
#4170437
0#
b00010101 !
#4172375
0$
b00000000 !
#4177375
1$
b00010101 !
#4183375
0$
b00000000 !
#4192937
1$
b00010101 !
#4198937
0$
b00000000 !
#4208437
1$
b00010101 !
#4214812
0'
#4217187
0$
b00000000 !
#4223875
1$
b00010101 !
#4229875
0$
b00000000 !
#4239437
1$
b00010101 !
#4245437
0$
b00000000 !
#4255000
1$
b00010101 !
#4259375
1#
b00011010 !
#4263562
0#
b00010101 !
#4265500
0$
b00000000 !
#4270437
1$
b00010101 !
#4276437
0$
b00000000 !
#4285875
1$
b00010101 !
#4291875
0$
b00000000 !
#4301375
1$
b00010101 !
#4307375
0$
b00000000 !
#4316937
1$
b00010101 !
#4322937
0$
b00000000 !
#4332375
1$
b00010101 !
#4338375
0$
b00000000 !
#4347875
1$
b00010101 !
#4352250
1#
b00011010 !
#4356437
0#
b00010101 !
#4358375
0$
b00000000 !
#4363437
1$
b00010101 !
#4369437
0$
b00000000 !
#4378937
1$
b00010101 !
#4384937
0$
b00000000 !
#4394375
1$
b00010101 !
#4403125
1'
#4405500
0$
b00000000 !
#4409875
1$
b00010101 !
#4415875
0$
b00000000 !
#4425437
1$
b00010101 !
#4431437
0$
b00000000 !
#4440937
1$
b00010101 !
#4445687
1#
b00011010 !
#4449875
0#
b00010101 !
#4451437
0$
b00000000 !
#4456375
1$
b00010101 !
#4462375
0$
b00000000 !
#4471875
1$
b00010101 !
#4477875
0$
b00000000 !
#4487437
1$
b00010101 !
#4493437
0$
b00000000 !
#4502937
1$
b00010101 !
#4508937
0$
b00000000 !
#4518375
1$
b00010101 !
#4524375
0$
b00000000 !
#4533875
1$
b00010101 !
#4539125
1#
b00011010 !
#4543312
0#
b00010101 !
#4544375
0$
b00000000 !
#4549437
1$
b00010101 !
#4555437
0$
b00000000 !
#4564937
1$
b00010101 !
#4570937
0$
b00000000 !
#4580375
1$
b00010101 !
#4586750
0'
#4589125
0$
b00000000 !
#4595937
1$
b00010101 !
#4601937
0$
b00000000 !
#4611500
1$
b00010101 !
#4617500
0$
b00000000 !
#4626937
1$
b00010101 !
#4632625
1#
b00011010 !
#4636812
0#
b00010101 !
#4637437
0$
b00000000 !
#4642375
1$
b00010101 !
#4648375
0$
b00000000 !
#4657875
1$
b00010101 !
#4663875
0$
b00000000 !
#4673437
1$
b00010101 !
#4679437
0$
b00000000 !
#4688937
1$
b00010101 !
#4694937
0$
b00000000 !
#4704375
1$
b00010101 !
#4710375
0$
b00000000 !
#4719875
1$
b00010101 !
#4725875
0$
b00000000 !
#4726375
1#
b00011010 !
#4730562
0#
b00000000 !
#4735437
1$
b00010101 !
#4741437
0$
b00000000 !
#4750937
1$
b00010101 !
#4756937
0$
b00000000 !
#4766375
1$
b00010101 !
#4772375
0$
b00000000 !
#4781875
1$
b00010101 !
#4787875
0$
b00000000 !
#4797437
1$
b00010101 !
#4803437
0$
b00000000 !
#4812875
1$
b00010101 !
#4818875
0$
b00000000 !
#4819687
1#
b00011010 !
#4823875
0#
b00000000 !
#4828375
1$
b00010101 !
#4834375
0$
b00000000 !
#4843937
1$
b00010101 !
#4849937
0$
b00000000 !
#4859437
1$
b00010101 !
#4865437
0$
b00000000 !
#4874875
1$
b00010101 !
#4880875
0$
b00000000 !
#4890375
1$
b00010101 !
#4896375
0$
b00000000 !
#4905937
1$
b00010101 !
#4911937
0$
b00000000 !
#4913125
1#
b00011010 !
#4916375
0#
b00000000 !
#4921625
1$
b00010101 !
#4927625
0$
b00000000 !
#4936875
1$
b00010101 !
#4942875
0$
b00000000 !
#4952375
1$
b00010101 !
#4958375
0$
b00000000 !
#4967937
1$
b00010101 !
#4973937
0$
b00000000 !
#4983375
1$
b00010101 !
#4989375
0$
b00000000 !
#4998875
1$
b00010101 !
#5004875
0$
b00000000 !
#5014437
1$
b00010101 !
#5020437
0$
b00000000 !
#5029875
1$
b00010101 !
#5035875
0$
b00000000 !
#5045375
1$
b00010101 !
#5051375
0$
b00000000 !
#5060937
1$
b00010101 !
#5066937
0$
b00000000 !
#5076375
1$
b00010101 !
#5082375
0$
b00000000 !
#5091875
1$
b00010101 !
#5097875
0$
b00000000 !
#5107437
1$
b00010101 !
#5113437
0$
b00000000 !
#5122875
1$
b00010101 !
#5128875
0$
b00000000 !
#5138375
1$
b00010101 !
#5147125
1'
#5149500
0$
b00000000 !
#5153937
1$
b00010101 !
#5159937
0$
b00000000 !
#5169437
1$
b00010101 !
#5175437
0$
b00000000 !
#5184875
1$
b00010101 !
#5190875
0$
b00000000 !
#5200375
1$
b00010101 !
#5206375
0$
b00000000 !
#5215937
1$
b00010101 !
#5221937
0$
b00000000 !
#5231375
1$
b00010101 !
#5237375
0$
b00000000 !
#5246875
1$
b00010101 !
#5252875
0$
b00000000 !
#5262437
1$
b00010101 !
#5268437
0$
b00000000 !
#5277875
1$
b00010101 !
#5283875
0$
b00000000 !
#5293375
1$
b00010101 !
#5299375
0$
b00000000 !
#5308937
1$
b00010101 !
#5314937
0$
b00000000 !
#5324375
1$
b00010101 !
#5330750
0'
#5333125
0$
b00000000 !
#5339937
1$
b00010101 !
#5345937
0$
b00000000 !
#5355500
1$
b00010101 !
#5361500
0$
b00000000 !
#5370937
1$
b00010101 !
#5376937
0$
b00000000 !
#5386375
1$
b00010101 !
#5392375
0$
b00000000 !
#5401875
1$
b00010101 !
#5407875
0$
b00000000 !
#5417437
1$
b00010101 !
#5423437
0$
b00000000 !
#5432875
1$
b00010101 !
#5438875
0$
b00000000 !
#5448375
1$
b00010101 !
#5454375
0$
b00000000 !
#5463937
1$
b00010101 !
#5469937
0$
b00000000 !
#5479375
1$
b00010101 !
#5485375
0$
b00000000 !
#5494875
1$
b00010101 !
#5500875
0$
b00000000 !
#5510437
1$
b00010101 !
#5516437
0$
b00000000 !
#5525875
1$
b00010101 !
#5531875
0$
b00000000 !
#5541375
1$
b00010101 !
#5547375
0$
b00000000 !
#5556937
1$
b00010101 !
#5562937
0$
b00000000 !
#5572375
1$
b00010101 !
#5578375
0$
b00000000 !
#5587875
1$
b00010101 !
#5593875
0$
b00000000 !
#5603437
1$
b00010101 !
#5609437
0$
b00000000 !
#5618875
1$
b00010101 !
#5624875
0$
b00000000 !
#5634375
1$
b00010101 !
#5640375
0$
b00000000 !
#5649937
1$
b00010101 !
#5655937
0$
b00000000 !
#5665375
1$
b00010101 !
#5671375
0$
b00000000 !
#5680875
1$
b00010101 !
#5686875
0$
b00000000 !
#5696437
1$
b00010101 !
#5702437
0$
b00000000 !
#5711875
1$
b00010101 !
#5717875
0$
b00000000 !
#5727375
1$
b00010101 !
#5733375
0$
b00000000 !
#5742937
1$
b00010101 !
#5748937
0$
b00000000 !
#5758375
1$
b00010101 !
#5764375
0$
b00000000 !
#5773875
1$
b00010101 !
#5779875
0$
b00000000 !
#5789437
1$
b00010101 !
#5795437
0$
b00000000 !
#5804875
1$
b00010101 !
#5810875
0$
b00000000 !
#5820375
1$
b00010101 !
#5826375
0$
b00000000 !
#5835937
1$
b00010101 !
#5841937
0$
b00000000 !
#5851375
1$
b00010101 !
#5857375
0$
b00000000 !
#5866875
1$
b00010101 !
#5872875
0$
b00000000 !
#5882437
1$
b00010101 !
#5891187
1'
#5893562
0$
b00000000 !
#5897875
1$
b00010101 !
#5903875
0$
b00000000 !
#5913375
1$
b00010101 !
#5919375
0$
b00000000 !
#5928937
1$
b00010101 !
#5934937
0$
b00000000 !
#5944437
1$
b00010101 !
#5950437
0$
b00000000 !
#5959875
1$
b00010101 !
#5965875
0$
b00000000 !
#5975375
1$
b00010101 !
#5981375
0$
b00000000 !
#5990937
1$
b00010101 !
#5996937
0$
b00000000 !
#6006375
1$
b00010101 !
#6012375
0$
b00000000 !
#6021875
1$
b00010101 !
#6027875
0$
b00000000 !
#6037437
1$
b00010101 !
#6043437
0$
b00000000 !
#6052875
1$
b00010101 !
#6058875
0$
b00000000 !
#6068375
1$
b00010101 !
#6074750
0'
#6077125
0$
b00000000 !
#6084000
1$
b00010101 !
#6090000
0$
b00000000 !
#6099437
1$
b00010101 !
#6105437
0$
b00000000 !
#6114875
1$
b00010101 !
#6120875
0$
b00000000 !
#6130375
1$
b00010101 !
#6136375
0$
b00000000 !
#6145937
1$
b00010101 !
#6151937
0$
b00000000 !
#6161375
1$
b00010101 !
#6167375
0$
b00000000 !
#6176875
1$
b00010101 !
#6182875
0$
b00000000 !
#6192437
1$
b00010101 !
#6198437
0$
b00000000 !
#6207875
1$
b00010101 !
#6213875
0$
b00000000 !
#6223375
1$
b00010101 !
#6229375
0$
b00000000 !
#6238937
1$
b00010101 !
#6244937
0$
b00000000 !
#6254375
1$
b00010101 !
#6260375
0$
b00000000 !
#6269875
1$
b00010101 !
#6275875
0$
b00000000 !
#6285437
1$
b00010101 !
#6291437
0$
b00000000 !
#6300875
1$
b00010101 !
#6306875
0$
b00000000 !
#6316375
1$
b00010101 !
#6322375
0$
b00000000 !
#6331937
1$
b00010101 !
#6337937
0$
b00000000 !
#6347375
1$
b00010101 !
#6353375
0$
b00000000 !
#6362875
1$
b00010101 !
#6368875
0$
b00000000 !
#6378437
1$
b00010101 !
#6384437
0$
b00000000 !
#6393875
1$
b00010101 !
#6399875
0$
b00000000 !
#6409375
1$
b00010101 !
#6415375
0$
b00000000 !
#6424937
1$
b00010101 !
#6430937
0$
b00000000 !
#6440375
1$
b00010101 !
#6446375
0$
b00000000 !
#6455875
1$
b00010101 !
#6461875
0$
b00000000 !
#6471437
1$
b00010101 !
#6477437
0$
b00000000 !
#6486875
1$
b00010101 !
#6492875
0$
b00000000 !
#6502375
1$
b00010101 !
#6508375
0$
b00000000 !
#6517937
1$
b00010101 !
#6523937
0$
b00000000 !
#6533375
1$
b00010101 !
#6539375
0$
b00000000 !
#6548875
1$
b00010101 !
#6554875
0$
b00000000 !
#6564437
1$
b00010101 !
#6570437
0$
b00000000 !
#6579875
1$
b00010101 !
#6585875
0$
b00000000 !
#6595375
1$
b00010101 !
#6601375
0$
b00000000 !
#6610937
1$
b00010101 !
#6616937
0$
b00000000 !
#6626375
1$
b00010101 !
#6635125
1'
#6637500
0$
b00000000 !
#6641875
1$
b00010101 !
#6647875
0$
b00000000 !
#6657437
1$
b00010101 !
#6663437
0$
b00000000 !
#6672937
1$
b00010101 !
#6678937
0$
b00000000 !
#6688375
1$
b00010101 !
#6694375
0$
b00000000 !
#6703875
1$
b00010101 !
#6709875
0$
b00000000 !
#6719437
1$
b00010101 !
#6725437
0$
b00000000 !
#6734875
1$
b00010101 !
#6740875
0$
b00000000 !
#6750375
1$
b00010101 !
#6756375
0$
b00000000 !
#6765937
1$
b00010101 !
#6771937
0$
b00000000 !
#6781375
1$
b00010101 !
#6787375
0$
b00000000 !
#6796875
1$
b00010101 !
#6802875
0$
b00000000 !
#6812437
1$
b00010101 !
#6818812
0'
#6821187
0$
b00000000 !
#6827875
1$
b00010101 !
#6833875
0$
b00000000 !
#6843437
1$
b00010101 !
#6849437
0$
b00000000 !
#6859000
1$
b00010101 !
#6865000
0$
b00000000 !
#6874437
1$
b00010101 !
#6880437
0$
b00000000 !
#6889875
1$
b00010101 !
#6895875
0$
b00000000 !
#6905375
1$
b00010101 !
#6911375
0$
b00000000 !
#6920937
1$
b00010101 !
#6926937
0$
b00000000 !
#6936375
1$
b00010101 !
#6942375
0$
b00000000 !
#6951875
1$
b00010101 !
#6957875
0$
b00000000 !
#6967437
1$
b00010101 !
#6973437
0$
b00000000 !
#6982875
1$
b00010101 !
#6988875
0$
b00000000 !
#6998375
1$
b00010101 !
#7004375
0$
b00000000 !
#7013937
1$
b00010101 !
#7019937
0$
b00000000 !
#7029375
1$
b00010101 !
#7035375
0$
b00000000 !
#7044875
1$
b00010101 !
#7050875
0$
b00000000 !
#7060437
1$
b00010101 !
#7066437
0$
b00000000 !
#7075875
1$
b00010101 !
#7081875
0$
b00000000 !
#7091375
1$
b00010101 !
#7097375
0$
b00000000 !
#7106937
1$
b00010101 !
#7112937
0$
b00000000 !
#7122375
1$
b00010101 !
#7128375
0$
b00000000 !
#7137875
1$
b00010101 !
#7143875
0$
b00000000 !
#7153437
1$
b00010101 !
#7159437
0$
b00000000 !
#7168875
1$
b00010101 !
#7174875
0$
b00000000 !
#7184375
1$
b00010101 !
#7190375
0$
b00000000 !
#7199937
1$
b00010101 !
#7205937
0$
b00000000 !
#7215375
1$
b00010101 !
#7221375
0$
b00000000 !
#7230875
1$
b00010101 !
#7236875
0$
b00000000 !
#7246437
1$
b00010101 !
#7252437
0$
b00000000 !
#7261875
1$
b00010101 !
#7267875
0$
b00000000 !
#7277375
1$
b00010101 !
#7283375
0$
b00000000 !
#7292937
1$
b00010101 !
#7298937
0$
b00000000 !
#7308375
1$
b00010101 !
#7314375
0$
b00000000 !
#7323875
1$
b00010101 !
#7329875
0$
b00000000 !
#7339437
1$
b00010101 !
#7345437
0$
b00000000 !
#7354875
1$
b00010101 !
#7360875
0$
b00000000 !
#7370375
1$
b00010101 !
#7379125
1'
#7381500
0$
b00000000 !
#7385937
1$
b00010101 !
#7391937
0$
b00000000 !
#7401437
1$
b00010101 !
#7407437
0$
b00000000 !
#7416875
1$
b00010101 !
#7422875
0$
b00000000 !
#7432375
1$
b00010101 !
#7438375
0$
b00000000 !
#7447937
1$
b00010101 !
#7453937
0$
b00000000 !
#7463375
1$
b00010101 !
